{
	"name" : "Wisdom",
	"description" : "Nice slim theme for croogo",
	"screenshot" : "screenshot.png",

	"author" : "Michael Schär",
	"authorEmail" : "mdschaer@gmail.com",
	"authorUrl" : "http://devnull.devnull",

	"menus" : [
		"main",
		"footer"
		],

	"regions" : [
		"right"
		]
}
